Cache Download — cache_download • tidyiddr
…
use_memory
Whether to use memory caching.

use_disk
Whether to use disk caching.

bust_cache
Whether to bust (refresh) the cache.

    Examples

cache_download("https://s3.amazonaws.com/quartzdata/datasets/caserates-by-age.csv")
#> # A tibble: 116 × 11
#>    `0 - 4` `5 - 11` `12 - 15` `16 - 17` `18 - 29` `30 - 39` `40 - 49` `50 - 64`
#>      <dbl>    <dbl>     <dbl>     <dbl>     <dbl>     <dbl>     <dbl>     <dbl>
#>  1   115.     146.      234.      329.      436.      432.      438.      396. 
#>  2    94.0    172.      162.      171.      144.      172.      157.      129. 
#>  3    29.5     32.9      50.5      86.2     128.      103.      102.       85.1
#>  4  1019.    1519.     1801.     1858.     1720.     1714.     1580.     1183. 
#>  5    15.3     18.8      25.8      32.9      42.6      39.1      33.8      26.6
#>  6    54.5     77.4     123.      142.      131.      119.      106.       79.5
#>  7    54.9     60.1      61.0      61.4      80.3      82.8      75.1      67.5
#>  8    16.3     18.2      25.4      31.6      40.1      39.4      34.6      27.4
#>  9    59.1     79.9     121.      164.      186.      158.      148.      122. 
#> 10   105.     123.      131.      150.      182.      195.      175.      145. 
#> # … with 106 more rows, and 3 more variables: `65 - 74` <dbl>, `75+` <dbl>,
#> #   week <date>

options("tidyiddr_use_cache" = TRUE)
cache_download("https://s3.amazonaws.com/quartzdata/datasets/caserates-by-age.csv")
#> [1] "Reading from disk cache"
#> Rows: 116 Columns: 11
#> ── Column specification ────────────────────────────────────────────────────────
#> Delimiter: ","
#> dbl  (10): 0 - 4, 5 - 11, 12 - 15, 16 - 17, 18 - 29, 30 - 39, 40 - 49, 50 - ...
#> date  (1): week
#> 
#> ℹ Use `spec()` to retrieve the full column specification for this data.
#> ℹ Specify the column types or set `show_col_types = FALSE` to quiet this message.
#> # A tibble: 116 × 11
#>    `0 - 4` `5 - 11` `12 - 15` `16 - 17` `18 - 29` `30 - 39` `40 - 49` `50 - 64`
#>      <dbl>    <dbl>     <dbl>     <dbl>     <dbl>     <dbl>     <dbl>     <dbl>
#>  1   115.     146.      234.      329.      436.      432.      438.      396. 
#>  2    94.0    172.      162.      171.      144.      172.      157.      129. 
#>  3    29.5     32.9      50.5      86.2     128.      103.      102.       85.1
#>  4  1019.    1519.     1801.     1858.     1720.     1714.     1580.     1183. 
#>  5    15.3     18.8      25.8      32.9      42.6      39.1      33.8      26.6
#>  6    54.5     77.4     123.      142.      131.      119.      106.       79.5
#>  7    54.9     60.1      61.0      61.4      80.3      82.8      75.1      67.5
#>  8    16.3     18.2      25.4      31.6      40.1      39.4      34.6      27.4
#>  9    59.1     79.9     121.      164.      186.      158.      148.      122. 
#> 10   105.     123.      131.      150.      182.      195.      175.      145. 
#> # … with 106 more rows, and 3 more variables: `65 - 74` <dbl>, `75+` <dbl>,
#> #   week <date>
…
